<svg width="88" height="80" viewBox="0 0 88 80" fill="none" xmlns="http://www.w3.org/2000/svg">
<g clip-path="url(#clip0_1771_63021)">
<path d="M77.7868 68.7943C76.0176 70.4912 74.3409 71.5884 73.0188 72.4529C57.4659 82.6224 39.0611 79.6595 35.1521 78.9347C29.3749 77.8665 18.2132 75.8 10.1397 67.1469C-2.07265 54.061 -0.169259 33.4396 9.303 19.8297C11.0371 17.3412 20.1868 3.52178 38.7896 1.30393C50.0471 -0.0378472 63.1697 2.66899 72.6707 9.92504C92.6212 25.1561 91.2 55.9237 77.7868 68.7943Z" fill="url(#paint0_linear_1771_63021)"/>
<path d="M73.1334 46.9451C83.3091 37.6712 83.3091 22.6354 73.1334 13.3616C62.9577 4.08773 46.4597 4.08773 36.284 13.3616C26.1084 22.6354 26.1084 37.6712 36.284 46.9451C46.4597 56.2189 62.9577 56.2189 73.1334 46.9451Z" fill="#BDD0FB"/>
<path d="M54.7098 50.4198C66.991 50.4198 76.9469 41.3463 76.9469 30.1535C76.9469 18.9607 66.991 9.88721 54.7098 9.88721C42.4285 9.88721 32.4726 18.9607 32.4726 30.1535C32.4726 41.3463 42.4285 50.4198 54.7098 50.4198Z" fill="url(#paint1_linear_1771_63021)"/>
<path d="M54.7098 51.4355C41.8331 51.4355 31.3581 41.8889 31.3581 30.1534C31.3581 18.418 41.8331 8.87134 54.7098 8.87134C67.5864 8.87134 78.0615 18.418 78.0615 30.1534C78.0615 41.8889 67.5864 51.4355 54.7098 51.4355ZM54.7098 9.88713C42.4463 9.88713 32.4726 18.9798 32.4726 30.1534C32.4726 41.33 42.4495 50.4198 54.7098 50.4198C66.9732 50.4198 76.9469 41.3271 76.9469 30.1534C76.9469 18.9798 66.97 9.88713 54.7098 9.88713Z" fill="white"/>
<path d="M54.7097 42.5089C62.197 42.5089 68.2666 36.9772 68.2666 30.1535C68.2666 23.3298 62.197 17.7981 54.7097 17.7981C47.2225 17.7981 41.1529 23.3298 41.1529 30.1535C41.1529 36.9772 47.2225 42.5089 54.7097 42.5089Z" fill="url(#paint2_linear_1771_63021)"/>
<path d="M54.7098 43.5246C46.6203 43.5246 40.0383 37.5259 40.0383 30.1534C40.0383 22.7809 46.6203 16.7822 54.7098 16.7822C62.7992 16.7822 69.3812 22.7809 69.3812 30.1534C69.3812 37.5259 62.7992 43.5246 54.7098 43.5246ZM54.7098 18.8138C47.8499 18.8138 42.2674 23.9015 42.2674 30.1534C42.2674 36.4053 47.8499 41.493 54.7098 41.493C61.5696 41.493 67.1521 36.4053 67.1521 30.1534C67.1521 23.9015 61.5696 18.8138 54.7098 18.8138Z" fill="white"/>
<path d="M54.7098 34.9415C57.6112 34.9415 59.9633 32.7979 59.9633 30.1536C59.9633 27.5093 57.6112 25.3657 54.7098 25.3657C51.8083 25.3657 49.4563 27.5093 49.4563 30.1536C49.4563 32.7979 51.8083 34.9415 54.7098 34.9415Z" fill="url(#paint3_linear_1771_63021)"/>
<path d="M54.7098 35.9573C51.2 35.9573 48.3449 33.3552 48.3449 30.1565C48.3449 26.9578 51.2 24.3557 54.7098 24.3557C58.2196 24.3557 61.0746 26.9578 61.0746 30.1565C61.0746 33.3523 58.2196 35.9573 54.7098 35.9573ZM54.7098 26.3815C52.4263 26.3815 50.5709 28.0725 50.5709 30.1536C50.5709 32.2346 52.4263 33.9257 54.7098 33.9257C56.9932 33.9257 58.8487 32.2346 58.8487 30.1536C58.8487 28.0754 56.99 26.3815 54.7098 26.3815Z" fill="white"/>
<path d="M83.9569 3.07935L84.6212 3.68766L59.3948 26.6783L58.7274 26.07L83.9569 3.07935Z" fill="url(#paint4_linear_1771_63021)"/>
<path d="M59.2 24.606C59.5832 24.2567 61.3844 25.9012 61.0012 26.2476L54.317 31.0355C54.0711 31.213 53.7517 30.9219 53.9433 30.6949L59.2 24.606Z" fill="url(#paint5_linear_1771_63021)"/>
<path d="M84.6084 3.69922L88.0032 4.00774L83.3437 8.25426C81.8172 9.64552 79.687 10.3382 77.5377 10.1461L84.6084 3.69922Z" fill="url(#paint6_linear_1771_63021)"/>
<path d="M83.9409 3.09394L83.6024 0L78.9461 4.24652C77.4196 5.63778 76.6595 7.57913 76.8702 9.53795L83.9409 3.09394Z" fill="url(#paint7_linear_1771_63021)"/>
<path d="M64.2076 73.2299C63.2687 64.6029 60.9214 43.1782 60.4072 40.0493C59.7621 36.1142 54.4703 36.9816 54.4703 36.9816L53.3397 76.8099H60.717C61.7102 76.8099 62.6555 76.4198 63.3198 75.7359C63.984 75.0519 64.3066 74.1438 64.2076 73.2299Z" fill="url(#paint8_linear_1771_63021)"/>
<path d="M4.51255 77.8141C2.20996 77.7704 0.380017 76.0299 0.427921 73.9314L1.18161 41.5949C1.22313 39.8107 2.79119 38.37 4.74888 38.3176L56.2427 36.9264C57.7756 36.8856 59.0403 38.0062 59.0339 39.4033L58.9094 76.4752C58.9062 77.7879 57.7213 78.8415 56.281 78.8124L4.51255 77.8141Z" fill="url(#paint9_linear_1771_63021)"/>
<path d="M1.1944 75.0985C0.456678 75.0869 -0.0990106 74.4873 0.0159594 73.8237C0.776039 69.42 3.16167 54.2763 2.3952 41.6997C2.36007 41.1263 2.84869 40.6373 3.47784 40.6199L55.2016 39.1151C55.9106 39.0947 56.5046 39.5983 56.5333 40.2444C56.7537 45.53 57.5713 67.3011 56.5014 75.0403C56.4375 75.5118 55.9904 75.8611 55.4699 75.8553L1.1944 75.0985Z" fill="#91B3FA"/>
<path d="M2.50059 74.6038C1.79161 74.595 1.25508 74.0158 1.36686 73.3755C2.09819 69.1377 4.3944 54.5645 3.65668 42.4623C3.62155 41.9093 4.09101 41.4407 4.69779 41.4232L54.4734 39.9767C55.1569 39.9563 55.7285 40.4424 55.7541 41.0652C55.9649 46.1529 56.7537 67.1032 55.7221 74.5514C55.6583 75.0054 55.2303 75.3401 54.7289 75.3343L2.50059 74.6038Z" fill="#BDD0FB"/>
<path opacity="0.72" d="M33.0954 49.1129L33.0188 52.3814C33.006 52.8791 33.4467 53.2895 33.9928 53.2924L37.6687 53.3099C38.2052 53.3128 38.6427 52.9228 38.6555 52.4367L38.7353 49.0023C38.7481 48.4871 38.2786 48.068 37.7134 48.0913L34.0311 48.2397C33.517 48.2601 33.105 48.6414 33.0954 49.1129Z" fill="white"/>
<path opacity="0.72" d="M20.2411 53.2634L23.917 53.2838C24.4535 53.2867 24.891 52.8967 24.9038 52.4106L24.9709 49.4884C24.9836 48.9761 24.5174 48.557 23.9553 48.5774L20.2762 48.6967C19.7557 48.7142 19.3437 49.0984 19.3309 49.5699L19.2671 52.3524C19.2543 52.8501 19.6918 53.2605 20.2411 53.2634Z" fill="white"/>
<path opacity="0.72" d="M23.4603 67.8163L19.9633 67.7842C19.3788 67.7784 18.8966 68.2034 18.8838 68.7389L18.8136 71.7252C18.8008 72.2549 19.2575 72.6973 19.8387 72.7206L23.3325 72.8545C23.9329 72.8777 24.4343 72.447 24.4471 71.8998L24.5205 68.8117C24.5333 68.2703 24.0575 67.8221 23.4603 67.8163Z" fill="white"/>
<path opacity="0.72" d="M17.5776 71.6552L17.6447 68.7359C17.6575 68.2032 17.188 67.7637 16.6036 67.7579L13.0683 67.7259C12.4934 67.7201 12.0208 68.1392 12.008 68.6631L11.9441 71.4776C11.9313 71.9986 12.3784 72.4323 12.9501 72.4556L16.4822 72.5924C17.0699 72.6127 17.5649 72.1907 17.5776 71.6552Z" fill="white"/>
<path opacity="0.72" d="M17.8842 58.4761L17.9385 56.0807C17.9513 55.5015 17.4403 55.0271 16.8048 55.0271L13.4291 55.0329C12.816 55.0329 12.3146 55.4811 12.2986 56.0429L12.2443 58.3335C12.2315 58.8982 12.7201 59.3668 13.3397 59.3871L16.7122 59.489C17.3445 59.5036 17.8714 59.0495 17.8842 58.4761Z" fill="white"/>
<path opacity="0.72" d="M17.7214 65.4413L17.8076 61.7768C17.8204 61.2529 17.3669 60.8164 16.792 60.7989L13.3397 60.697C12.7106 60.6796 12.1836 61.1307 12.1709 61.707L12.0846 65.4034C12.0719 65.939 12.5477 66.3814 13.1353 66.3814H16.6707C17.2423 66.3785 17.7086 65.9622 17.7214 65.4413Z" fill="white"/>
<path opacity="0.72" d="M27.117 53.3012L30.7928 53.3187C31.3293 53.3216 31.7669 52.9316 31.7796 52.4455L31.8531 49.2643C31.8659 48.752 31.3996 48.3329 30.8375 48.3533L27.1585 48.4726C26.6379 48.49 26.2259 48.8742 26.2132 49.3458L26.1429 52.3873C26.1301 52.885 26.5677 53.2983 27.117 53.3012Z" fill="white"/>
<path opacity="0.72" d="M24.6004 65.4237L24.6802 61.995C24.693 61.4624 24.2299 61.0171 23.6455 60.9996L20.1485 60.8948C19.5545 60.8773 19.0563 61.3052 19.0435 61.8495L18.9605 65.38C18.9477 65.9272 19.4299 66.3754 20.0303 66.3754H23.5273C24.1118 66.3783 24.5876 65.9534 24.6004 65.4237Z" fill="white"/>
<path opacity="0.72" d="M30.8886 55.0039L26.8743 55.0097C26.4335 55.0097 26.0727 55.3328 26.0631 55.7345L25.9864 59.0292C25.9768 59.4338 26.3281 59.7714 26.7721 59.7831L30.7832 59.9024C31.2335 59.917 31.6104 59.591 31.62 59.1806L31.6998 55.7577C31.7126 55.3444 31.3453 55.0039 30.8886 55.0039Z" fill="white"/>
<path opacity="0.72" d="M32.9389 55.909L32.8655 59.0466C32.8527 59.556 33.2934 59.978 33.8523 59.9955L37.4483 60.1032C38.0168 60.1206 38.4894 59.7102 38.5022 59.1951L38.5788 55.944C38.5916 55.423 38.1285 54.9951 37.5569 54.9951L33.9577 55.0009C33.402 55.0009 32.9485 55.4055 32.9389 55.909Z" fill="white"/>
<path opacity="0.72" d="M19.8994 59.5794L23.9106 59.6988C24.3609 59.7133 24.7377 59.3873 24.7473 58.974L24.8208 55.7695C24.8303 55.3533 24.4631 55.0127 24.0096 55.0156L19.9952 55.0215C19.5545 55.0215 19.1936 55.3445 19.184 55.7462L19.1138 58.8256C19.1042 59.2302 19.4555 59.5678 19.8994 59.5794Z" fill="white"/>
<path opacity="0.72" d="M30.5182 61.2064L27.0211 61.1016C26.4271 61.0841 25.9289 61.512 25.9162 62.0563L25.8395 65.383C25.8267 65.9302 26.309 66.3785 26.9094 66.3785H30.4064C30.9876 66.3785 31.4635 65.9535 31.4762 65.4238L31.5529 62.2018C31.5657 61.6662 31.1026 61.2238 30.5182 61.2064Z" fill="white"/>
<path opacity="0.72" d="M37.5122 61.4159L33.7724 61.3053C33.2455 61.2908 32.8048 61.6692 32.7952 62.1494L32.7185 65.4995C32.7058 65.9826 33.1337 66.3814 33.667 66.3814H37.41C37.9241 66.3814 38.3457 66.0059 38.3585 65.5373L38.4351 62.2978C38.4383 61.8234 38.0295 61.4305 37.5122 61.4159Z" fill="white"/>
<path opacity="0.72" d="M13.8762 53.1878L16.6674 53.2023C17.4084 53.2052 18.0183 52.6668 18.0343 51.9886L18.0822 49.8901C18.0982 49.2556 17.5233 48.7404 16.8271 48.7637L13.7197 48.8656C13.014 48.8889 12.4519 49.4098 12.4391 50.0502L12.3976 51.8023C12.3816 52.562 13.0491 53.1849 13.8762 53.1878Z" fill="white"/>
<path opacity="0.72" d="M10.7657 68.7475C10.7784 68.1741 10.2738 67.6997 9.6447 67.6939L8.42793 67.6822C7.50498 67.6735 6.74809 68.2294 6.73213 68.9309L6.68422 70.9595C6.66825 71.6552 7.38682 72.2373 8.30019 72.2722L9.60638 72.3217C10.194 72.345 10.689 71.9229 10.7018 71.3845L10.7657 68.7475Z" fill="white"/>
<path opacity="0.72" d="M49.8587 68.0519L47.4667 68.0316C46.879 68.0257 46.3968 68.4536 46.3872 68.9862L46.2978 72.7874C46.285 73.3172 46.7417 73.7596 47.323 73.7828L49.7022 73.876C50.6507 73.9138 51.4459 73.3492 51.4651 72.6274L51.5417 69.3675C51.5577 68.6515 50.8008 68.0578 49.8587 68.0519Z" fill="white"/>
<path opacity="0.72" d="M8.52693 66.3754H9.71495C10.3313 66.3754 10.8327 65.9272 10.8455 65.3655L10.9317 61.6399C10.9445 61.0753 10.4559 60.6067 9.83631 60.5863L8.6419 60.5514C7.69978 60.5223 6.91735 61.084 6.89818 61.8L6.82154 65.0599C6.80876 65.7817 7.57842 66.3754 8.52693 66.3754Z" fill="white"/>
<path opacity="0.72" d="M8.62593 59.2446L10.1205 59.2882C10.5964 59.3028 10.9924 58.9593 11.0052 58.5257L11.069 55.8334C11.0786 55.3968 10.6922 55.0359 10.2132 55.0359L8.70577 55.0388C7.79239 55.0417 7.04828 55.5947 7.03231 56.2874L6.99399 57.9261C6.97483 58.6304 7.70297 59.2155 8.62593 59.2446Z" fill="white"/>
<path opacity="0.72" d="M50.2419 47.6721L47.8435 47.7507C47.3038 47.7682 46.8726 48.1669 46.8599 48.6588L46.7736 52.4134C46.7609 52.9315 47.2176 53.3594 47.786 53.3623L50.2547 53.3739C51.1744 53.3798 51.9249 52.8238 51.9409 52.1253L52.0144 48.9848C52.0335 48.2426 51.2191 47.6401 50.2419 47.6721Z" fill="white"/>
<path opacity="0.72" d="M30.3361 67.8773L26.8391 67.8453C26.2547 67.8395 25.7724 68.2644 25.7597 68.7999L25.6862 71.9899C25.6734 72.5196 26.1301 72.9621 26.7114 72.9853L30.2052 73.1192C30.8056 73.1425 31.307 72.7117 31.3197 72.1646L31.3964 68.8698C31.4092 68.3313 30.9333 67.8831 30.3361 67.8773Z" fill="white"/>
<path opacity="0.72" d="M50.1397 54.9719L47.7094 54.9748C47.1569 54.9748 46.7034 55.3794 46.6906 55.8858L46.6076 59.4571C46.5948 59.9665 47.0355 60.3885 47.5944 60.406L50.0343 60.4787C50.9764 60.5078 51.7589 59.9461 51.778 59.2301L51.8451 56.2875C51.8643 55.5657 51.0914 54.9719 50.1397 54.9719Z" fill="white"/>
<path opacity="0.72" d="M50.0535 61.7885L47.5178 61.7128C46.9908 61.6983 46.5501 62.0766 46.5405 62.5569L46.4735 65.4966C46.4607 65.9797 46.8886 66.3785 47.422 66.3785H49.9705C50.887 66.3785 51.6311 65.8254 51.6471 65.1298L51.695 63.1012C51.7046 62.4026 50.9765 61.8176 50.0535 61.7885Z" fill="white"/>
<path opacity="0.72" d="M39.6647 62.3532L39.5912 65.4995C39.5784 65.9827 40.0064 66.3814 40.5397 66.3814H44.2826C44.7968 66.3814 45.2184 66.0059 45.2311 65.5373L45.3014 62.5045C45.311 62.033 44.9054 61.6401 44.3848 61.6226L40.6451 61.512C40.115 61.4916 39.6775 61.8729 39.6647 62.3532Z" fill="white"/>
<path opacity="0.72" d="M44.0878 67.9996L40.5908 67.9676C40.0032 67.9618 39.5209 68.3867 39.5114 68.9223L39.4283 72.5197C39.4156 73.0495 39.8722 73.4919 40.4535 73.5151L43.9473 73.649C44.5477 73.6723 45.0491 73.2415 45.0619 72.6944L45.1481 68.995C45.1609 68.4537 44.685 68.0054 44.0878 67.9996Z" fill="white"/>
<path opacity="0.72" d="M8.82393 53.1614L10.2866 53.1701C10.7529 53.173 11.1361 52.8325 11.1457 52.4075L11.2064 49.7764C11.2159 49.3282 10.8104 48.9643 10.3217 48.9818L8.77283 49.0313C7.88501 49.0604 7.18561 49.6047 7.16964 50.2799L7.13451 51.8487C7.11535 52.5647 7.87862 53.1585 8.82393 53.1614Z" fill="white"/>
<path opacity="0.72" d="M37.212 67.9386L33.7757 67.9095C33.1561 67.9037 32.6483 68.3548 32.6355 68.9165L32.5589 72.255C32.5461 72.7847 33.0028 73.2271 33.584 73.2504L37.0778 73.3843C37.6782 73.4076 38.1796 72.9768 38.1924 72.4296L38.2723 68.934C38.285 68.3926 37.8092 67.9444 37.212 67.9386Z" fill="white"/>
<path opacity="0.72" d="M39.9776 48.8858L39.8978 52.3785C39.885 52.8966 40.3417 53.3245 40.9102 53.3274L44.5094 53.3448C45.065 53.3477 45.5217 52.9432 45.5345 52.4338L45.6175 48.8043C45.6303 48.2717 45.1481 47.838 44.5605 47.8555L40.9581 47.9719C40.4215 47.9923 39.9904 48.391 39.9776 48.8858Z" fill="white"/>
<path opacity="0.72" d="M39.8148 55.8973L39.7381 59.2532C39.7254 59.7626 40.1661 60.1846 40.7249 60.2021L44.321 60.3097C44.8894 60.3272 45.3621 59.9168 45.3749 59.4016L45.4547 55.9322C45.4675 55.4113 45.0044 54.9834 44.4327 54.9834L40.8335 54.9892C40.2778 54.9892 39.8275 55.3938 39.8148 55.8973Z" fill="white"/>
<path d="M8.42473 46.1994L8.5908 47.3054C8.64509 47.6605 8.97084 47.9253 9.36365 47.9341H9.42114C9.86186 47.9428 10.2259 47.6255 10.2355 47.2239L10.2611 46.0917C10.2706 45.6522 9.85547 45.3058 9.37643 45.3553L9.12732 45.3815C8.68341 45.4222 8.36405 45.7948 8.42473 46.1994Z" fill="white"/>
<path d="M14.0583 45.9142L14.2243 47.0202C14.2786 47.3753 14.6044 47.6402 14.9972 47.6489H15.0547C15.4954 47.6576 15.8595 47.3404 15.8691 46.9387L15.8946 45.8065C15.9042 45.367 15.489 45.0207 15.01 45.0701L14.7609 45.0963C14.317 45.14 13.9976 45.5096 14.0583 45.9142Z" fill="white"/>
<path d="M20.9916 46.0016L21.1577 47.1076C21.212 47.4627 21.5377 47.7276 21.9305 47.7363H21.988C22.4287 47.745 22.7928 47.4278 22.8024 47.0261L22.8279 45.8939C22.8375 45.4544 22.4223 45.1081 21.9433 45.1575L21.6942 45.1837C21.2503 45.2245 20.9309 45.597 20.9916 46.0016Z" fill="white"/>
<path d="M27.7461 45.725L27.9122 46.831C27.9665 47.1861 28.2922 47.451 28.685 47.4597H28.7425C29.1832 47.4684 29.5473 47.1512 29.5569 46.7495L29.5824 45.6173C29.592 45.1778 29.1768 44.8315 28.6978 44.8809L28.4487 44.9071C28.0048 44.9508 27.6854 45.3204 27.7461 45.725Z" fill="white"/>
<path d="M34.6826 44.9218L34.8487 46.0278C34.903 46.3829 35.2287 46.6477 35.6216 46.6565H35.679C36.1198 46.6652 36.4838 46.348 36.4934 45.9463L36.519 44.8141C36.5285 44.3746 36.1134 44.0282 35.6343 44.0777L35.3852 44.1039C34.9413 44.1447 34.622 44.5172 34.6826 44.9218Z" fill="white"/>
<path d="M42.0343 45.0644L42.2004 46.1704C42.2547 46.5255 42.5804 46.7903 42.9732 46.7991H43.0307C43.4714 46.8078 43.8355 46.4905 43.8451 46.0889L43.8706 44.9567C43.8802 44.5172 43.4651 44.1708 42.986 44.2203L42.7369 44.2465C42.2898 44.2872 41.9736 44.6598 42.0343 45.0644Z" fill="white"/>
<path d="M48.2363 44.945L48.4024 46.051C48.4567 46.4061 48.7824 46.6709 49.1752 46.6797H49.2327C49.6734 46.6884 50.0375 46.3712 50.0471 45.9695L50.0726 44.8373C50.0822 44.3978 49.6671 44.0514 49.188 44.1009L48.9389 44.1271C48.495 44.1708 48.1756 44.5404 48.2363 44.945Z" fill="white"/>
<path d="M45.8794 44.6393C45.8635 44.4006 45.5888 44.2987 45.3876 44.4413C44.816 44.8517 44.586 45.4862 44.305 46.08C43.9761 46.7698 43.6631 47.4683 43.3852 48.1756C43.0914 48.9236 42.8423 49.6833 42.6507 50.4546C42.2739 49.5319 41.8331 48.6326 41.2743 47.7827C41.1273 47.5557 40.709 47.6895 40.792 47.9573C41.2743 49.5203 41.8683 51.0513 42.3218 52.62C42.4814 53.1731 43.315 53.0421 43.3756 52.5094C43.5449 51.0542 43.9313 49.6629 44.4774 48.2891C44.7361 47.6371 45.0267 46.9939 45.3301 46.3565C45.5952 45.7948 45.921 45.2679 45.8794 44.6393Z" fill="url(#paint10_linear_1771_63021)"/>
<path d="M46.6651 45.8006C46.1701 45.7162 45.988 46.2954 46.4447 46.4759C49.4531 47.6838 49.8491 51.0833 47.6743 53.1411C46.6683 54.0929 45.3333 54.8321 44.0719 55.4667C42.7912 56.1099 41.3605 56.6047 39.8723 56.4679C36.4264 56.1535 35.9569 52.9548 36.9884 50.4867C37.9784 48.1145 40.1022 46.2809 42.7018 45.4048C43.0371 45.2913 42.9062 44.7936 42.5645 44.9071C40.1246 45.7046 38.0519 47.2763 36.7649 49.3341C35.5832 51.2259 34.8743 53.8949 36.42 55.7955C38.0232 57.7602 41.0635 57.7951 43.3533 56.9772C45.8731 56.075 49.0124 54.4043 50.0152 51.9769C51.0595 49.433 49.7629 46.3275 46.6651 45.8006Z" fill="url(#paint11_linear_1771_63021)"/>
<path d="M59.0339 76.1958C58.9637 76.1958 58.903 76.1434 58.903 76.0765L58.7433 55.2019C58.7433 55.1349 58.8008 55.0825 58.8743 55.0825C58.9445 55.0825 59.0052 55.1349 59.0052 55.2019L59.1649 76.0765C59.1649 76.1405 59.1074 76.1958 59.0339 76.1958Z" fill="#91B3FA"/>
<path d="M58.8391 50.5275C58.7689 50.5275 58.7082 50.4751 58.7082 50.4081L58.6539 43.1171C58.6539 43.0502 58.7114 42.9978 58.7848 42.9978C58.8551 42.9978 58.9158 43.0502 58.9158 43.1171L58.9701 50.4081C58.9701 50.4722 58.9094 50.5245 58.8391 50.5275Z" fill="#91B3FA"/>
<path d="M10.799 44.0307C11.3441 43.534 11.3441 42.7287 10.799 42.232C10.254 41.7353 9.37038 41.7353 8.82537 42.232C8.28035 42.7287 8.28035 43.534 8.82537 44.0307C9.37038 44.5274 10.254 44.5274 10.799 44.0307Z" fill="#91B3FA"/>
<path d="M22.234 43.9353C22.779 43.4386 22.779 42.6332 22.234 42.1365C21.689 41.6398 20.8053 41.6398 20.2603 42.1365C19.7153 42.6332 19.7153 43.4386 20.2603 43.9353C20.8053 44.432 21.689 44.432 22.234 43.9353Z" fill="#91B3FA"/>
<path d="M34.08 43.1807C34.375 42.5317 34.0368 41.7877 33.3247 41.5188C32.6126 41.25 31.7962 41.5582 31.5012 42.2072C31.2062 42.8562 31.5444 43.6003 32.2565 43.8691C32.9686 44.1379 33.785 43.8297 34.08 43.1807Z" fill="#91B3FA"/>
<path d="M45.5829 42.4996C45.76 41.8159 45.2955 41.1309 44.5454 40.9695C43.7953 40.808 43.0436 41.2314 42.8665 41.915C42.6893 42.5986 43.1538 43.2837 43.904 43.4451C44.6541 43.6065 45.4057 43.1832 45.5829 42.4996Z" fill="#91B3FA"/>
<path d="M45.2854 33.39C42.9381 33.8557 43.1585 39.4876 43.3469 41.7753C43.3916 42.3138 43.8834 42.7271 44.4742 42.7271C44.6371 42.7271 44.7936 42.6631 44.9054 42.5525C45.014 42.4419 45.0682 42.2905 45.0491 42.1421C44.8447 40.4132 44.4136 35.439 46.1445 35.1713C46.1445 35.1713 47.3836 34.9704 47.5944 37.1621H48.9357C48.9357 37.1621 48.2395 32.802 45.2854 33.39Z" fill="#7D97F4"/>
<path d="M33.8523 33.6781C31.505 34.1438 31.7254 39.7787 31.9138 42.0635C31.9585 42.6019 32.4503 43.0181 33.0411 43.0181C33.204 43.0181 33.3605 42.9541 33.4723 42.8435C33.5808 42.7329 33.6351 42.5845 33.616 42.4331C33.4116 40.7042 32.9804 35.7242 34.7114 35.4594C34.7114 35.4594 35.9505 35.3022 36.1613 37.4444H37.5026C37.5026 37.4473 36.8032 33.0931 33.8523 33.6781Z" fill="#7D97F4"/>
<path d="M22.416 33.9692C20.0687 34.4348 20.289 40.0697 20.4774 42.3574C20.5222 42.8959 21.014 43.3121 21.6048 43.3121C21.7677 43.3121 21.9241 43.2481 22.0359 43.1375C22.1445 43.0269 22.1988 42.8784 22.1796 42.7271C21.9752 40.9982 21.5441 36.0153 23.275 35.7504C23.275 35.7504 24.5142 35.6224 24.7218 37.7762L26.0631 37.7325C26.0663 37.7354 25.3701 33.3841 22.416 33.9692Z" fill="#7D97F4"/>
<path d="M10.9828 34.3069C8.63552 34.7726 8.85588 40.4104 9.0443 42.6981C9.08902 43.2365 9.58083 43.6557 10.1716 43.6557C10.3345 43.6557 10.491 43.5916 10.6028 43.481C10.7114 43.3704 10.7657 43.222 10.7465 43.0735C10.5421 41.3447 10.111 36.3559 11.8419 36.0911C11.8419 36.0911 13.081 35.9252 13.2918 38.0674H14.6331C14.6331 38.0644 13.9337 33.719 10.9828 34.3069Z" fill="#7D97F4"/>
<path d="M17.4723 14.0407C17.4723 19.6726 22.6715 24.2393 29.0874 24.2393C35.5034 24.2393 40.99 19.4718 40.99 13.8398C40.99 8.20788 35.5034 3.83911 29.0874 3.83911C22.6715 3.83911 17.4723 8.40871 17.4723 14.0407Z" fill="url(#paint12_linear_1771_63021)"/>
<path d="M40.0766 11.5608C40.083 11.5608 40.0894 11.5608 40.0958 11.5579C40.1373 11.5491 40.1629 11.5084 40.1533 11.4706C40.0287 11.0573 39.8691 10.6498 39.6774 10.2569C39.6615 10.2219 39.6136 10.2045 39.572 10.219C39.5305 10.2336 39.5114 10.2743 39.5305 10.3122C39.719 10.6993 39.8754 11.1038 39.9968 11.5084C40.0096 11.5404 40.0415 11.5608 40.0766 11.5608Z" fill="#BDD0FB"/>
<path d="M38.3042 8.37361C38.3202 8.37361 38.3393 8.36779 38.3521 8.35905C38.3872 8.33577 38.3936 8.29211 38.3681 8.26009C36.2156 5.75409 32.7473 4.25806 29.0938 4.25806C27.5321 4.25806 26.0247 4.53456 24.6068 5.08466C24.5653 5.09921 24.5493 5.14287 24.5653 5.1778C24.5844 5.21272 24.6291 5.23019 24.6707 5.21272C26.0663 4.67136 27.5545 4.39776 29.0938 4.39776C32.6994 4.39776 36.1166 5.87342 38.2371 8.3445C38.2531 8.36487 38.2786 8.37361 38.3042 8.37361Z" fill="#BDD0FB"/>
<path d="M19.0531 14.0406C19.0531 18.9158 23.5529 22.8684 29.1066 22.8684C34.6603 22.8684 39.4092 18.7441 39.4092 13.866C39.4092 8.99079 34.6603 5.20996 29.1066 5.20996C23.5529 5.21287 19.0531 9.16543 19.0531 14.0406Z" fill="#7D97F4"/>
<path d="M19.0531 14.0407C19.0531 9.16545 23.5529 5.21289 29.1066 5.21289C32.1118 5.21289 34.8838 6.32182 36.7936 8.11182L29.0491 13.77L27.4555 22.752C22.6906 22.0593 19.0531 18.424 19.0531 14.0407Z" fill="#91B3FA"/>
<path opacity="0.78" d="M36.8415 13.5837C36.8671 13.9592 37.2311 14.2444 37.6591 14.224C38.087 14.2037 38.4128 13.8806 38.3872 13.5051C38.3617 13.1297 37.9976 12.8444 37.5697 12.8648C37.1417 12.8881 36.816 13.2082 36.8415 13.5837Z" fill="white"/>
<path opacity="0.78" d="M20.1166 14.4394C20.1421 14.8149 20.5062 15.1001 20.9341 15.0797C21.3621 15.0594 21.6878 14.7363 21.6623 14.3608C21.6367 13.9854 21.2727 13.7001 20.8447 13.7205C20.4168 13.7409 20.091 14.064 20.1166 14.4394Z" fill="white"/>
<path opacity="0.78" d="M30.6172 20.5369C30.1956 20.6039 29.9178 20.9589 29.9944 21.3286C30.0711 21.6982 30.4735 21.9427 30.895 21.8758C31.3166 21.8088 31.5944 21.4537 31.5178 21.0841C31.4411 20.7145 31.0387 20.47 30.6172 20.5369Z" fill="white"/>
<path opacity="0.78" d="M27.6088 6.06572C27.1872 6.13267 26.9094 6.48776 26.986 6.8574C27.0627 7.22704 27.4651 7.47153 27.8866 7.40459C28.3082 7.33764 28.586 6.98255 28.5094 6.61291C28.4296 6.24327 28.0272 5.99878 27.6088 6.06572Z" fill="white"/>
<path opacity="0.78" d="M25.1146 20.9269C25.0347 21.1015 25.0571 21.2645 25.1593 21.2907C25.2615 21.3169 25.4084 21.1976 25.4882 21.0229C25.5681 20.8483 25.5457 20.6853 25.4435 20.6591C25.3413 20.6329 25.1912 20.7523 25.1146 20.9269Z" fill="white"/>
<path opacity="0.78" d="M31.8403 7.20082C31.7605 7.37546 31.7828 7.53845 31.885 7.56464C31.9872 7.59084 32.1341 7.4715 32.214 7.29687C32.2938 7.12224 32.2715 6.95924 32.1693 6.93305C32.0671 6.90685 31.9202 7.02619 31.8403 7.20082Z" fill="white"/>
<path opacity="0.78" d="M21.6016 18.3162C21.4323 18.4297 21.3525 18.5782 21.4228 18.648C21.4962 18.7179 21.691 18.6829 21.8603 18.5694C22.0295 18.4559 22.1094 18.3075 22.0391 18.2376C21.9689 18.1678 21.7709 18.2027 21.6016 18.3162Z" fill="white"/>
<path opacity="0.78" d="M35.4651 9.65434C35.2958 9.76786 35.216 9.9163 35.2862 9.98615C35.3597 10.056 35.5545 10.0211 35.7238 9.90756C35.893 9.79405 35.9729 9.64561 35.9026 9.57576C35.8324 9.5059 35.6375 9.54083 35.4651 9.65434Z" fill="white"/>
<path opacity="0.78" d="M21.1609 10.5449C20.9693 10.4634 20.7808 10.4692 20.7425 10.5594C20.7042 10.6468 20.8319 10.7836 21.0236 10.8651C21.2152 10.9466 21.4036 10.9407 21.4419 10.8505C21.477 10.7632 21.3525 10.6264 21.1609 10.5449Z" fill="white"/>
<path opacity="0.78" d="M36.305 17.3586C36.1134 17.2771 35.9249 17.2829 35.8866 17.3732C35.8483 17.4605 35.976 17.5973 36.1677 17.6788C36.3593 17.7603 36.5477 17.7545 36.586 17.6642C36.6243 17.5769 36.4966 17.4401 36.305 17.3586Z" fill="white"/>
<path opacity="0.78" d="M24.3609 7.64326C24.2427 7.48609 24.0798 7.4075 23.9968 7.46571C23.9138 7.52393 23.9393 7.69856 24.0575 7.85573C24.1756 8.0129 24.3385 8.09149 24.4215 8.03328C24.5046 7.97506 24.4758 7.80043 24.3609 7.64326Z" fill="white"/>
<path opacity="0.78" d="M33.2743 20.371C33.1561 20.2139 32.9932 20.1353 32.9102 20.1935C32.8272 20.2517 32.8527 20.4263 32.9709 20.5835C33.089 20.7407 33.2519 20.8193 33.3349 20.7611C33.418 20.7028 33.3924 20.5282 33.2743 20.371Z" fill="white"/>
<path d="M29.1258 13.5049L38.3809 17.9959C41.5042 11.3657 37.0874 5.69587 29.2375 5.00024L29.1258 13.5049Z" fill="#BDD0FB"/>
<path d="M29.4196 13.767L35.6376 16.4913C35.7589 16.5437 35.8994 16.4651 35.8962 16.3458L35.8707 15.6414C35.8675 15.5046 36.0495 15.429 36.1677 15.5192L40.6643 18.9944C40.8016 19.1021 40.6898 19.2971 40.511 19.2651L34.721 18.1794C34.5837 18.1533 34.5326 18.0019 34.6348 17.9146L35.3118 17.3267C35.3948 17.2539 35.3789 17.1316 35.2767 17.0793L29.2503 14.0435C29.1673 13.9999 29.1354 13.9067 29.1833 13.834C29.2312 13.7583 29.3334 13.7292 29.4196 13.767Z" fill="url(#paint13_linear_1771_63021)"/>
<path opacity="0.71" d="M39.9649 18.9799C40.0224 18.9799 40.0735 18.9508 40.1022 18.9042C40.1342 18.846 40.1182 18.7819 40.0607 18.7412L39.0771 18.0281C39.0419 18.0019 38.9908 18.0077 38.9653 18.0368C38.9366 18.0659 38.9429 18.1125 38.9749 18.1358L39.9585 18.8489C38.6491 18.5869 35.5769 17.999 35.513 17.9932C35.4715 17.9874 35.43 18.0165 35.4236 18.0572C35.4204 18.095 35.4491 18.13 35.4938 18.1329C35.5865 18.1445 37.9402 18.5957 39.9298 18.9769C39.9394 18.9799 39.9521 18.9799 39.9649 18.9799Z" fill="white"/>
<path d="M28.7713 13.4992L28.784 8.16124C28.7809 8.04191 28.6371 7.96914 28.519 8.02735L27.8196 8.3708C27.6823 8.43775 27.5226 8.33005 27.5609 8.19617L29.0076 3.09102C29.0523 2.93385 29.3046 2.93094 29.3525 3.08811L30.9174 8.10303C30.9557 8.22236 30.8248 8.33005 30.6906 8.29222L29.7836 8.03318C29.6719 8.00116 29.5569 8.07101 29.5505 8.17579L29.1258 13.5051C29.1226 13.5895 29.0395 13.6564 28.9437 13.6535C28.8511 13.6506 28.7713 13.5836 28.7713 13.4992Z" fill="url(#paint14_linear_1771_63021)"/>
<path opacity="0.71" d="M30.4352 7.61107C30.4447 7.61107 30.4543 7.60816 30.4639 7.60525C30.5054 7.59069 30.5246 7.54994 30.5086 7.51502C30.4799 7.43643 29.8507 5.39612 29.3206 3.67015C29.3014 3.60903 29.2439 3.56828 29.1673 3.57119C29.0938 3.5741 29.0364 3.61485 29.0204 3.67888L28.7521 4.77326C28.7425 4.8111 28.7713 4.84893 28.8128 4.85766C28.8543 4.8664 28.899 4.84311 28.9086 4.80236L29.1769 3.70799C29.5154 4.85184 30.333 7.51502 30.3553 7.56741C30.3745 7.5936 30.4032 7.61107 30.4352 7.61107Z" fill="white"/>
<path d="M29.1577 14.5093C29.6145 14.5093 29.9849 14.1848 29.9849 13.7845C29.9849 13.3843 29.6145 13.0598 29.1577 13.0598C28.7009 13.0598 28.3306 13.3843 28.3306 13.7845C28.3306 14.1848 28.7009 14.5093 29.1577 14.5093Z" fill="url(#paint15_linear_1771_63021)"/>
<g opacity="0.3">
<path d="M68.7968 52.1284C68.8607 51.9916 69.0363 51.9276 69.1864 51.9887C69.4771 52.1051 69.7804 52.2099 70.0838 52.303C70.2371 52.3496 70.3202 52.5009 70.2723 52.6406C70.2723 52.6436 70.2723 52.6436 70.2691 52.6465C70.218 52.7891 70.0487 52.8648 69.8922 52.8153C69.5729 52.7163 69.2567 52.6057 68.9469 52.4835C68.8064 52.4282 68.7361 52.2856 68.7808 52.1546C68.7904 52.1459 68.7936 52.1371 68.7968 52.1284ZM71.5944 52.6639C71.9074 52.7192 72.23 52.7629 72.5461 52.792C72.709 52.8066 72.8272 52.9404 72.8112 53.0889C72.792 53.2373 72.6483 53.345 72.4854 53.3305C72.1533 53.2984 71.8148 53.2548 71.4858 53.1966C71.3262 53.1675 71.2208 53.0278 71.2495 52.8793C71.2527 52.8677 71.2559 52.8589 71.2591 52.8473C71.3038 52.7192 71.4475 52.6406 71.5944 52.6639ZM74.1078 52.8415C74.4272 52.8298 74.7497 52.8066 75.0659 52.7716C75.2288 52.7542 75.3757 52.8589 75.398 53.0074C75.4172 53.1558 75.3022 53.2897 75.1393 53.3101C74.8072 53.3479 74.4655 53.3712 74.1301 53.3828C73.9673 53.3887 73.83 53.2722 73.8236 53.1209C73.8236 53.0889 73.8268 53.0598 73.8363 53.0307C73.8715 52.923 73.9769 52.8444 74.1078 52.8415ZM76.5988 52.5009C76.9086 52.4253 77.2152 52.3379 77.5154 52.239C77.6687 52.1895 77.8411 52.2623 77.8954 52.402C77.9497 52.5417 77.8699 52.6989 77.7166 52.7483C77.4004 52.8531 77.0747 52.9463 76.7521 53.0248C76.5924 53.0627 76.4295 52.9783 76.388 52.8327C76.3721 52.7804 76.3753 52.728 76.3912 52.6814C76.42 52.597 76.4966 52.5242 76.5988 52.5009ZM78.9429 51.6627C79.224 51.5259 79.505 51.3775 79.7733 51.2203C79.9106 51.1388 80.0958 51.1766 80.182 51.3018C80.2715 51.4269 80.2299 51.5958 80.0926 51.6743C79.8084 51.8402 79.5146 51.9974 79.2176 52.1371C79.0739 52.207 78.8918 52.1575 78.8152 52.0236C78.7769 51.9567 78.7705 51.8839 78.796 51.817C78.8216 51.7558 78.8727 51.6976 78.9429 51.6627ZM81.0283 50.3733C81.2711 50.1841 81.5074 49.9833 81.7309 49.7766C81.8459 49.669 82.0343 49.669 82.1493 49.7737C82.2675 49.8785 82.2675 50.0502 82.1525 50.155C81.9162 50.3733 81.6671 50.5858 81.4116 50.7837C81.287 50.8798 81.0986 50.8681 80.9932 50.7546C80.923 50.6818 80.907 50.5829 80.9357 50.4956C80.9549 50.4519 80.9836 50.4082 81.0283 50.3733ZM85.1385 41.0537C85.3014 41.0362 85.4483 41.141 85.4675 41.2894C85.509 41.5921 85.5345 41.9035 85.5441 42.2092C85.5505 42.3576 85.4228 42.4828 85.2567 42.4886C85.0938 42.4944 84.9565 42.378 84.9501 42.2266C84.9405 41.9356 84.915 41.6416 84.8767 41.3534C84.8703 41.3127 84.8767 41.2749 84.8894 41.2399C84.9246 41.1439 85.0204 41.0682 85.1385 41.0537ZM82.7465 48.6968C82.9381 48.464 83.117 48.2195 83.2862 47.9721C83.3725 47.844 83.5545 47.8062 83.695 47.8848C83.8355 47.9634 83.8771 48.1293 83.7908 48.2573C83.6152 48.5193 83.4236 48.7754 83.2224 49.0199C83.1234 49.1392 82.9381 49.1654 82.8072 49.0752C82.7018 49.0053 82.6635 48.8831 82.7018 48.7754C82.7114 48.7463 82.7242 48.7201 82.7465 48.6968ZM85.2248 43.4112C85.3876 43.4258 85.5058 43.5597 85.4898 43.7081C85.4547 44.0137 85.4036 44.3193 85.3397 44.6191C85.311 44.7646 85.1545 44.8607 84.9916 44.8345C84.8319 44.8054 84.7266 44.6657 84.7553 44.5172C84.816 44.232 84.8639 43.9409 84.8958 43.6499C84.899 43.6324 84.9022 43.615 84.9086 43.5975C84.9501 43.4782 85.081 43.3967 85.2248 43.4112ZM84.008 46.7118C84.1357 46.4469 84.2539 46.1704 84.3561 45.8939C84.4072 45.7513 84.5765 45.6756 84.7329 45.7251C84.8862 45.7717 84.9693 45.923 84.9214 46.0628C84.9214 46.0657 84.9214 46.0657 84.9182 46.0686C84.8096 46.3596 84.6882 46.6478 84.5509 46.9272C84.4838 47.064 84.3114 47.1251 84.1613 47.0669C84.0208 47.0116 83.9505 46.869 83.9984 46.738C84.0016 46.7293 84.0048 46.7205 84.008 46.7118Z" fill="#91B3FA"/>
<path d="M84.4551 39.383C84.4359 39.4325 84.4359 39.4907 84.4551 39.546C84.4998 39.6799 84.5445 39.8166 84.5829 39.9505C84.6244 40.0961 84.7872 40.1805 84.9469 40.1426C85.1066 40.1048 85.1992 39.9564 85.1577 39.8108C85.1162 39.6682 85.0715 39.5256 85.0236 39.3859C84.9757 39.2433 84.8096 39.1647 84.6531 39.2083C84.5541 39.2345 84.4838 39.3015 84.4551 39.383Z" fill="#91B3FA"/>
</g>
<g opacity="0.3">
<path d="M78.6076 33.0902C78.5629 33.2154 78.6267 33.3522 78.7577 33.4133C78.895 33.4744 79.0323 33.5414 79.1665 33.6112C79.3102 33.684 79.489 33.6374 79.5689 33.5065C79.6487 33.3755 79.5976 33.2125 79.4539 33.1397C79.3134 33.067 79.1665 32.9971 79.0227 32.9331C78.8758 32.8661 78.697 32.9214 78.6235 33.0524C78.6204 33.0641 78.614 33.0757 78.6076 33.0902Z" fill="#91B3FA"/>
<path d="M62.5884 38.8125C62.6459 38.6728 62.8152 38.6001 62.9685 38.6525C63.1218 38.7048 63.2016 38.8591 63.1441 38.9988C63.0355 39.2666 62.9365 39.5402 62.8535 39.8196C62.8088 39.9622 62.6459 40.0466 62.4862 40.0059C62.3297 39.9651 62.2371 39.8167 62.2818 39.6712C62.3202 39.5489 62.3585 39.4296 62.4 39.3132C62.4575 39.1473 62.5214 38.9755 62.5884 38.8125ZM62.285 40.8878C62.4479 40.9082 62.5597 41.0449 62.5373 41.1934C62.4958 41.4786 62.4639 41.7668 62.4479 42.052C62.4383 42.2004 62.301 42.3169 62.1349 42.3081C61.9721 42.2994 61.8443 42.1743 61.8539 42.0229C61.8699 41.7231 61.9018 41.4175 61.9497 41.1206C61.9529 41.1061 61.9561 41.0915 61.9593 41.077C62.0072 40.9489 62.1413 40.8674 62.285 40.8878ZM63.2527 37.4679C63.4092 37.203 63.5784 36.941 63.7605 36.6878C63.8499 36.5627 64.0351 36.5277 64.1725 36.6092C64.3098 36.6907 64.3481 36.8595 64.2587 36.9847C64.0862 37.2263 63.9266 37.4737 63.7765 37.7269C63.6998 37.8579 63.5178 37.9074 63.3741 37.8375C63.2463 37.7764 63.1888 37.6396 63.2303 37.5173C63.2367 37.4999 63.2431 37.4824 63.2527 37.4679ZM62.1541 43.2046C62.317 43.193 62.4607 43.3036 62.4735 43.452C62.499 43.7372 62.5405 44.0254 62.5916 44.3077C62.6204 44.4561 62.5118 44.5958 62.3489 44.6191C62.186 44.6453 62.0327 44.5464 62.0072 44.3979C61.9529 44.1011 61.9082 43.7984 61.8826 43.4986C61.8794 43.4636 61.8826 43.4258 61.8954 43.3938C61.9305 43.289 62.0295 43.2133 62.1541 43.2046ZM64.7345 35.5119C64.9517 35.2849 65.1816 35.0637 65.418 34.8513C65.5361 34.7465 65.7246 34.7494 65.8363 34.8571C65.9513 34.9648 65.9481 35.1365 65.8299 35.2384C65.6032 35.4392 65.386 35.6487 65.1816 35.8641C65.0731 35.9776 64.8878 35.9893 64.7633 35.8903C64.6707 35.8176 64.6387 35.704 64.6739 35.6051C64.6866 35.5731 64.7058 35.5411 64.7345 35.5119ZM66.6475 33.8966C66.9126 33.7161 67.1904 33.5473 67.4715 33.3872C67.612 33.3086 67.794 33.3494 67.8802 33.4745C67.9665 33.6026 67.9218 33.7685 67.7844 33.8471C67.5162 33.9985 67.2543 34.1585 67.002 34.3303C66.8711 34.4176 66.6858 34.3943 66.5868 34.272C66.5293 34.1993 66.5166 34.1091 66.5421 34.0305C66.5613 33.981 66.5964 33.9315 66.6475 33.8966ZM68.9054 32.7032C69.2088 32.581 69.5186 32.4704 69.8315 32.3714C69.988 32.322 70.1541 32.3976 70.2084 32.5373C70.2627 32.68 70.1796 32.8313 70.0264 32.8808C69.7293 32.9739 69.4323 33.0816 69.1449 33.198C68.9948 33.2592 68.8192 33.198 68.7521 33.0612C68.7202 32.9972 68.7202 32.9303 68.7393 32.8692C68.7649 32.7964 68.8224 32.7353 68.9054 32.7032ZM71.3932 31.9843C71.719 31.9261 72.0479 31.8796 72.3769 31.8446C72.5397 31.8272 72.6866 31.9349 72.7058 32.0833C72.725 32.2317 72.6068 32.3656 72.4439 32.3831C72.1309 32.4151 71.818 32.4588 71.5082 32.5141C71.3485 32.5432 71.192 32.4471 71.1601 32.3016C71.1505 32.255 71.1537 32.2084 71.1697 32.1677C71.1984 32.0775 71.2814 32.0047 71.3932 31.9843ZM73.9928 31.7806C74.3218 31.7893 74.6571 31.8097 74.986 31.8417C75.1489 31.8592 75.2671 31.9931 75.2479 32.1415C75.2287 32.2899 75.0818 32.3976 74.919 32.3802C74.606 32.3482 74.2898 32.3278 73.9768 32.322C73.814 32.3191 73.683 32.1939 73.6894 32.0455C73.6894 32.0193 73.6958 31.9931 73.7022 31.9698C73.7405 31.8563 73.8587 31.7777 73.9928 31.7806ZM76.5765 32.1037C76.8128 32.159 77.0491 32.2201 77.2822 32.2841C77.3653 32.3074 77.4483 32.3336 77.5313 32.3598C77.6878 32.4093 77.7741 32.5606 77.7166 32.7032C77.6623 32.8459 77.4962 32.9215 77.3397 32.8721C77.2599 32.8488 77.1832 32.8226 77.1034 32.8022C76.883 32.7382 76.6595 32.68 76.4327 32.6305C76.2731 32.5956 76.1773 32.4471 76.2156 32.3016C76.2156 32.2958 76.2188 32.2899 76.222 32.2841C76.2699 32.1502 76.4264 32.0687 76.5765 32.1037Z" fill="#91B3FA"/>
<path d="M62.3904 45.6727C62.3713 45.7251 62.3713 45.7804 62.3904 45.8357C62.4383 45.9754 62.4926 46.1181 62.5469 46.2549C62.6012 46.3946 62.7737 46.4673 62.927 46.4179C63.0803 46.3655 63.1601 46.2112 63.1058 46.0715C63.0547 45.9405 63.0036 45.8037 62.9557 45.6727C62.9078 45.5301 62.7385 45.4515 62.5821 45.4952C62.4894 45.5243 62.4192 45.5913 62.3904 45.6727Z" fill="#91B3FA"/>
</g>
<path d="M66.903 47.8149C66.9349 47.8614 66.9956 47.8818 67.0531 47.8672L68.6882 47.4889C69.2599 47.9837 69.921 48.3999 70.6555 48.7113L70.8695 50.2365C70.8759 50.2888 70.9206 50.3325 70.978 50.3441L72.9613 50.7196C73.0188 50.7312 73.0794 50.708 73.1082 50.6614L73.9705 49.34C74.7816 49.3225 75.5705 49.1799 76.3114 48.9354L77.6463 49.8784C77.6942 49.9105 77.7581 49.9134 77.806 49.8843L79.4986 48.8714C79.5465 48.8423 79.5721 48.787 79.5561 48.7346L79.1409 47.2444C79.6838 46.7234 80.1405 46.1209 80.4822 45.4515L82.1557 45.2565C82.2132 45.2506 82.2611 45.2099 82.2739 45.1575L82.6858 43.35C82.6986 43.2976 82.6731 43.2423 82.622 43.2162L81.1721 42.4303C81.1529 41.691 80.9964 40.9721 80.7281 40.2968L81.7629 39.0802C81.798 39.0366 81.8012 38.9784 81.7693 38.9347L80.6579 37.3921C80.626 37.3484 80.5653 37.3252 80.5078 37.3397L78.8727 37.7181C78.301 37.2233 77.6399 36.8071 76.9054 36.4956L76.6914 34.9705C76.685 34.9181 76.6403 34.8744 76.5828 34.8628L74.5996 34.4873C74.5421 34.4757 74.4814 34.499 74.4527 34.5456L73.5904 35.867C72.7792 35.8844 71.9904 36.027 71.2495 36.2715L69.9146 35.3285C69.8667 35.2965 69.8028 35.2936 69.7549 35.3227L68.0623 36.3356C68.0144 36.3647 67.9888 36.42 68.0048 36.4724L68.42 37.9626C67.877 38.4836 67.4204 39.086 67.0786 39.7555L65.4052 39.9505C65.3477 39.9563 65.2998 39.9971 65.287 40.0494L64.8751 41.8569C64.8623 41.9093 64.8878 41.9646 64.9389 41.9908L66.3888 42.7767C66.408 43.5159 66.5645 44.2348 66.8327 44.9101L65.798 46.1267C65.7629 46.1704 65.7597 46.2286 65.7916 46.2723L66.903 47.8149Z" fill="#91B3FA"/>
<path d="M71.9553 41.7901C72.4471 40.8703 73.6671 40.4861 74.6763 40.9343C75.1649 41.1497 75.5321 41.5281 75.711 41.9967C75.8898 42.4653 75.8547 42.9688 75.6184 43.4141C75.1266 44.3339 73.9066 44.7181 72.8974 44.2699C71.9777 43.8624 71.5465 42.9048 71.8467 42.0433C71.8755 41.9589 71.9106 41.8715 71.9553 41.7901ZM75.2607 42.1364C75.1234 41.7784 74.8423 41.4873 74.4687 41.3214C73.6958 40.978 72.7601 41.272 72.3832 41.9792C72.0064 42.6836 72.3289 43.5364 73.105 43.8798C73.8779 44.2233 74.8136 43.9293 75.1904 43.2221C75.2255 43.158 75.2543 43.094 75.2767 43.027C75.3757 42.7389 75.3725 42.4275 75.2607 42.1364Z" fill="#BDD0FB"/>
<path d="M69.0555 41.1992C69.0044 41.3477 68.9597 41.499 68.9245 41.6533C68.915 41.7028 68.9022 41.7493 68.8926 41.7988C68.8479 42.0404 68.8223 42.282 68.8192 42.5264C68.8192 42.5294 68.8192 42.5323 68.8192 42.5352C68.8192 42.5439 68.8192 42.5526 68.8192 42.5643C68.8192 42.5817 68.8192 42.6021 68.8192 42.6196C68.8192 42.6691 68.8543 42.7069 68.9022 42.7215C68.915 42.7244 68.9277 42.7273 68.9405 42.7273C69.0076 42.7273 69.0587 42.6778 69.0587 42.6196C69.0555 42.3111 69.0906 42.0025 69.1609 41.6998C69.5058 40.1922 70.6715 39.0308 72.1469 38.5215C72.9677 38.2392 73.881 38.1577 74.8008 38.3323C74.9637 38.3643 75.1202 38.3993 75.2766 38.4458C76.321 38.7456 77.2088 39.3597 77.8188 40.2038C78.5182 41.1759 78.7577 42.3343 78.499 43.4724C77.9625 45.8183 75.4331 47.3289 72.8591 46.8399C72.6994 46.8108 72.5429 46.773 72.3896 46.7293C71.7253 46.5372 71.1122 46.2141 70.598 45.7834C70.5852 45.7717 70.5693 45.763 70.5533 45.7601C70.5118 45.7484 70.4639 45.7572 70.4287 45.7892C70.384 45.8329 70.3872 45.9027 70.4351 45.9435C70.9748 46.3975 71.6168 46.7351 72.3162 46.936C72.4758 46.9825 72.6419 47.0204 72.808 47.0524C75.5098 47.5646 78.1669 45.9784 78.7289 43.516C79.0004 42.3227 78.7481 41.1061 78.0168 40.0874C77.378 39.1997 76.4455 38.5564 75.3501 38.2392C75.1872 38.1926 75.0212 38.1519 74.8519 38.1198C73.5425 37.8724 72.2076 38.1024 71.0866 38.7689C70.1062 39.3481 69.4004 40.2009 69.0555 41.1992Z" fill="#BDD0FB"/>
<g opacity="0.3">
<path d="M58.2771 58.8053C58.2547 58.8751 58.2803 58.9508 58.3505 58.9945C58.4783 59.073 58.6124 59.1516 58.7465 59.2215C58.8327 59.2681 58.9445 59.2419 58.9988 59.1633C59.0499 59.0847 59.0212 58.9828 58.9349 58.9333C58.8072 58.8635 58.6795 58.7907 58.5581 58.715C58.4751 58.6627 58.3601 58.683 58.3026 58.7616C58.2898 58.7762 58.2803 58.7907 58.2771 58.8053Z" fill="#91B3FA"/>
<path d="M59.5194 59.4048C59.5609 59.3204 59.6663 59.2825 59.7589 59.3175C59.992 59.4106 60.2348 59.4921 60.4807 59.562C60.5318 59.5765 60.5829 59.5911 60.6371 59.6056C60.733 59.6318 60.7904 59.725 60.7617 59.8123C60.7298 59.8938 60.6308 59.952 60.535 59.9258C60.4807 59.9112 60.4264 59.8967 60.3721 59.8821C60.1166 59.8094 59.8611 59.722 59.6152 59.626C59.529 59.5911 59.4843 59.5038 59.513 59.4223C59.5162 59.4164 59.5162 59.4106 59.5194 59.4048ZM61.5441 59.7948C61.8507 59.8414 62.1605 59.8705 62.4703 59.8821C62.5725 59.885 62.6491 59.9636 62.6459 60.0568C62.6427 60.1499 62.5565 60.2198 62.4543 60.2168C62.1318 60.2052 61.8028 60.1732 61.4835 60.1266C61.3844 60.1121 61.3174 60.0247 61.3334 59.9345C61.3334 59.9258 61.3365 59.92 61.3397 59.9112C61.3653 59.8326 61.4547 59.7832 61.5441 59.7948ZM63.3996 59.8647C63.7094 59.8414 64.0192 59.8006 64.3194 59.7424C64.4184 59.722 64.5142 59.7803 64.5365 59.8705C64.5589 59.9607 64.495 60.048 64.396 60.0684C64.0799 60.1295 63.7541 60.1732 63.4316 60.1994C63.3294 60.2081 63.2431 60.1383 63.2336 60.048C63.2304 60.0247 63.2336 60.0044 63.2399 59.984C63.2623 59.9171 63.323 59.8705 63.3996 59.8647ZM65.22 59.5125C65.5138 59.4193 65.8012 59.3117 66.0791 59.1865C66.1717 59.1458 66.2803 59.1807 66.325 59.2622C66.3697 59.3437 66.3314 59.4455 66.2419 59.4863C65.9513 59.6173 65.6479 59.7308 65.3413 59.8268C65.2455 59.8559 65.1401 59.8094 65.1082 59.722C65.0954 59.6871 65.0954 59.6493 65.1082 59.6173C65.121 59.5736 65.1625 59.5329 65.22 59.5125ZM66.887 58.7703C67.1457 58.616 67.398 58.4472 67.6344 58.2638C67.711 58.2056 67.826 58.2144 67.893 58.2842C67.9569 58.3541 67.9473 58.4589 67.8707 58.52C67.6216 58.7092 67.3597 58.8896 67.0882 59.0497C67.002 59.0992 66.8902 59.0788 66.836 59.0002C66.804 58.9566 66.7976 58.9042 66.8136 58.8576C66.8264 58.8227 66.8519 58.7907 66.887 58.7703ZM68.3082 57.6788C68.519 57.4722 68.717 57.251 68.8958 57.0239C68.9533 56.9483 69.0683 56.9308 69.1513 56.9861C69.2344 57.0414 69.2535 57.1433 69.1928 57.219C69.0044 57.4576 68.7968 57.6905 68.5765 57.9058C68.5062 57.9728 68.3912 57.9786 68.3178 57.9146C68.2635 57.868 68.2475 57.8011 68.2667 57.7429C68.2763 57.7196 68.289 57.6963 68.3082 57.6788ZM69.394 56.305C69.5409 56.0576 69.6751 55.7986 69.7868 55.5366C69.8252 55.4522 69.9306 55.4086 70.0232 55.4435C70.1158 55.4784 70.1637 55.5745 70.1254 55.6589C70.0072 55.9354 69.8667 56.2061 69.7134 56.4651C69.6655 56.5466 69.5537 56.5757 69.4643 56.5321C69.3876 56.4942 69.3525 56.4098 69.3781 56.3341C69.3813 56.3254 69.3876 56.3138 69.394 56.305ZM70.4575 53.7525C70.5565 53.7641 70.63 53.8485 70.614 53.9387C70.5789 54.192 70.5246 54.4481 70.4575 54.6984C70.4479 54.7362 70.4383 54.7741 70.4256 54.8119C70.4032 54.9021 70.301 54.9545 70.202 54.9312C70.103 54.908 70.0455 54.8177 70.0711 54.7275C70.0807 54.6926 70.0902 54.6576 70.0998 54.6198C70.1637 54.3811 70.2148 54.1367 70.2467 53.8951C70.2467 53.8863 70.2499 53.8747 70.2531 53.866C70.2851 53.7932 70.3681 53.7437 70.4575 53.7525Z" fill="#91B3FA"/>
</g>
<g opacity="0.3">
<path d="M55.2495 50.7342C55.3485 50.4577 55.4699 50.1841 55.604 49.9221C55.6487 49.8377 55.7573 49.8028 55.8467 49.8435C55.9393 49.8843 55.9776 49.9832 55.9329 50.0647C55.802 50.315 55.6902 50.577 55.5944 50.839C55.5625 50.9263 55.4603 50.9728 55.3645 50.9437C55.2719 50.9175 55.2208 50.8244 55.2495 50.7342ZM55.2208 51.4502C55.3198 51.4676 55.3836 51.5579 55.3645 51.6481C55.3038 51.9188 55.2623 52.1982 55.2367 52.4747C55.2271 52.5649 55.1409 52.6348 55.0387 52.629C54.9365 52.6202 54.8631 52.5416 54.8695 52.4485C54.895 52.1574 54.9397 51.8664 55.0036 51.5811C55.0036 51.5753 55.0068 51.5695 55.01 51.5637C55.0387 51.4822 55.1281 51.4327 55.2208 51.4502ZM56.0671 49.1537C56.2363 48.9063 56.4279 48.6677 56.6291 48.4436C56.693 48.3708 56.808 48.3621 56.8878 48.4203C56.9677 48.4785 56.9772 48.5833 56.9134 48.656C56.7218 48.8714 56.5429 49.0984 56.3769 49.3342C56.3226 49.4128 56.2108 49.4361 56.1246 49.3866C56.0511 49.3458 56.0224 49.2643 56.0479 49.1945C56.0543 49.1799 56.0607 49.1683 56.0671 49.1537ZM55.0291 53.147C55.1313 53.1441 55.2144 53.214 55.2208 53.3071C55.2335 53.5836 55.2655 53.863 55.3166 54.1366C55.3325 54.2269 55.2655 54.3142 55.1665 54.3287C55.0675 54.3433 54.9717 54.2822 54.9557 54.1919C54.9014 53.9038 54.8695 53.6127 54.8567 53.3217C54.8567 53.3013 54.8599 53.2809 54.8663 53.2635C54.8854 53.1994 54.9493 53.1499 55.0291 53.147ZM57.2806 47.8032C57.5106 47.6024 57.7565 47.4103 58.012 47.2357C58.0918 47.1804 58.2068 47.1949 58.2675 47.2677C58.3281 47.3404 58.3122 47.4452 58.2323 47.5005C57.9896 47.6664 57.7533 47.8498 57.5361 48.0419C57.4627 48.1059 57.3477 48.103 57.2774 48.0361C57.2295 47.9895 57.2168 47.9255 57.2359 47.8702C57.2423 47.8469 57.2551 47.8236 57.2806 47.8032ZM58.8136 46.7554C59.0914 46.6099 59.3788 46.4789 59.6727 46.3654C59.7653 46.3305 59.8739 46.3683 59.9122 46.4527C59.9505 46.5371 59.909 46.6361 59.8164 46.671C59.5353 46.7787 59.2607 46.9039 58.9956 47.0436C58.9094 47.0901 58.7944 47.061 58.7465 46.9824C58.721 46.9388 58.7146 46.8922 58.7305 46.8486C58.7433 46.8107 58.7721 46.7758 58.8136 46.7554ZM60.5765 46.0714C60.883 45.9899 61.1992 45.9259 61.5122 45.8793C61.6112 45.8648 61.707 45.9259 61.723 46.019C61.7389 46.1093 61.6719 46.1966 61.5697 46.2111C61.2695 46.2548 60.9693 46.3159 60.6755 46.3945C60.5796 46.4207 60.4775 46.3683 60.4487 46.281C60.4391 46.249 60.4391 46.2141 60.4487 46.1849C60.4711 46.1296 60.5158 46.086 60.5765 46.0714Z" fill="#91B3FA"/>
<path d="M55.1729 54.9545C55.1633 54.9865 55.1601 55.0185 55.1729 55.0535C55.2176 55.1903 55.2655 55.3271 55.3198 55.458C55.3549 55.5454 55.4603 55.589 55.5561 55.557C55.6519 55.525 55.6998 55.4289 55.6647 55.3416C55.6136 55.2165 55.5689 55.0855 55.5242 54.9545C55.4954 54.8672 55.3932 54.8148 55.2974 54.841C55.2367 54.8614 55.192 54.9021 55.1729 54.9545Z" fill="#91B3FA"/>
</g>
<path d="M58.2196 56.5059C58.2419 56.535 58.2802 56.5495 58.3186 56.5408L59.414 56.2876C59.7972 56.6194 60.2379 56.8988 60.7297 57.1055L60.8735 58.1271C60.8798 58.162 60.9086 58.1911 60.9469 58.1998L62.2723 58.4531C62.3106 58.4618 62.3521 58.4443 62.3713 58.4123L62.9493 57.5275C63.4922 57.5159 64.0192 57.4198 64.5142 57.2568L65.4084 57.8884C65.4403 57.9117 65.4818 57.9117 65.517 57.8913L66.6507 57.2132C66.6826 57.1928 66.6986 57.1579 66.689 57.1229L66.4112 56.1246C66.7753 55.7753 67.0818 55.3737 67.3086 54.9254L68.4295 54.7945C68.4679 54.7886 68.4998 54.7625 68.5094 54.7275L68.7872 53.5196C68.7968 53.4847 68.7776 53.4469 68.7425 53.4294L67.7717 52.9026C67.7589 52.4078 67.6535 51.9276 67.4747 51.4764L68.1677 50.6615C68.1932 50.6324 68.1932 50.5945 68.1709 50.5625L67.4268 49.5292C67.4044 49.5001 67.3661 49.4856 67.3277 49.4943L66.2323 49.7475C65.8491 49.4157 65.4084 49.1363 64.9166 48.9297L64.7729 47.9081C64.7665 47.8731 64.7377 47.844 64.6994 47.8353L63.3741 47.5821C63.3357 47.5733 63.2942 47.5908 63.2751 47.6228L62.697 48.5076C62.1541 48.5193 61.6271 48.6153 61.1321 48.7783L60.2379 48.1467C60.206 48.1234 60.1645 48.1234 60.1293 48.1438L58.9956 48.822C58.9637 48.8424 58.9477 48.8773 58.9573 48.9122L59.2351 49.9105C58.8711 50.2598 58.5645 50.6615 58.3377 51.1097L57.2168 51.2407C57.1784 51.2465 57.1465 51.2727 57.1369 51.3076L56.8591 52.5155C56.8495 52.5504 56.8687 52.5883 56.9038 52.6057L57.8747 53.1325C57.8874 53.6273 57.9928 54.1076 58.1717 54.5587L57.4786 55.3737C57.4531 55.4028 57.4531 55.4406 57.4755 55.4726L58.2196 56.5059Z" fill="#91B3FA"/>
<path d="M61.5792 52.4659C61.7421 52.1632 62.0231 51.9333 62.3744 51.8227C62.7257 51.7121 63.0994 51.7325 63.4347 51.8809C64.1214 52.1865 64.4088 52.9433 64.0766 53.5691C63.7413 54.1948 62.911 54.4568 62.2243 54.1541C61.8922 54.0056 61.6399 53.7495 61.5218 53.4293C61.4228 53.1703 61.4196 52.8938 61.509 52.6377C61.5218 52.5795 61.5473 52.5212 61.5792 52.4659ZM63.2719 52.1807C63.0259 52.073 62.7513 52.0556 62.4926 52.1371C62.2339 52.2185 62.0263 52.3845 61.9082 52.6086C61.79 52.8327 61.774 53.083 61.8603 53.3187C61.9497 53.5545 62.1317 53.7437 62.3776 53.8514C62.8822 54.0755 63.4954 53.8834 63.7413 53.4235C63.7637 53.3828 63.7828 53.3391 63.7956 53.2955C63.9489 52.8647 63.7317 52.3845 63.2719 52.1807Z" fill="#BDD0FB"/>
<path d="M59.5577 52.0527C59.5225 52.1546 59.4938 52.2564 59.4683 52.3612C59.4204 52.5708 59.3948 52.7861 59.3948 52.9986C59.3948 53.0074 59.3948 53.019 59.3948 53.0277C59.3948 53.1034 59.4491 53.1645 59.5226 53.1849C59.5417 53.1907 59.5609 53.1936 59.58 53.1936C59.6822 53.1936 59.7621 53.118 59.7621 53.0248C59.7621 52.824 59.7812 52.6261 59.8259 52.4281C59.8291 52.4165 59.8323 52.4078 59.8323 52.3961C59.9441 51.9333 60.1772 51.5142 60.5094 51.165C60.6882 50.9758 60.899 50.807 61.1321 50.6643C61.1353 50.6643 61.1353 50.6614 61.1385 50.6614C61.1449 50.6585 61.1513 50.6556 61.1545 50.6498C61.8443 50.2394 62.6683 50.0968 63.4762 50.2481C63.5816 50.2685 63.6838 50.2918 63.7828 50.3209C64.4567 50.5159 65.0347 50.9117 65.4275 51.4589C65.8778 52.0876 66.0343 52.8385 65.8683 53.5749C65.699 54.3113 65.2263 54.9429 64.5397 55.3533C63.8499 55.7637 63.0259 55.9063 62.218 55.7549C62.1158 55.7346 62.0136 55.7113 61.9146 55.6822C61.4834 55.557 61.0874 55.3504 60.7553 55.0709C60.7361 55.0535 60.7106 55.0418 60.685 55.0331C60.618 55.0156 60.5445 55.0302 60.4966 55.0797C60.4295 55.1466 60.4327 55.2543 60.5062 55.3154C60.8766 55.6269 61.3206 55.8626 61.8028 55.9994C61.9146 56.0314 62.0263 56.0576 62.1413 56.0809C63.0451 56.2526 63.9681 56.0926 64.7377 55.6327C65.5106 55.1728 66.0375 54.4655 66.2259 53.6419C66.4144 52.8182 66.2387 51.9799 65.7341 51.2756C65.2934 50.6643 64.6483 50.219 63.8946 50.0007C63.7828 49.9687 63.6679 49.9396 63.5497 49.9192C61.806 49.5932 60.0846 50.5334 59.5577 52.0527Z" fill="#BDD0FB"/>
<path d="M19.5609 51.2406C19.5321 51.2871 17.8203 52.4368 17.8203 52.4368C17.8203 52.4368 18.1972 54.9021 19.7333 55.8771C21.4227 56.9482 23.8052 54.9952 23.8052 54.9952C23.8052 54.9952 25.7022 55.4056 26.7114 51.8052C26.9445 50.9786 25.6064 50.9088 23.9936 51.0601C21.9177 51.258 19.5609 51.2406 19.5609 51.2406Z" fill="url(#paint16_linear_1771_63021)"/>
<path d="M16.3608 59.655C17.0315 59.2358 17.7724 58.9186 18.5581 58.7236C18.8519 58.6508 20.4455 59.0728 21.4291 59.0525C22.78 59.0234 24.1565 58.4645 25.271 58.7178C26.3792 58.9681 27.283 59.297 27.8068 59.6375C29.3716 60.6533 30.2914 62.5452 30.8503 64.4196C29.79 65.4121 28.4551 65.8516 28.4551 65.8516L28.2091 74.9617L22.2978 77.7122L15.5529 74.6269L15.7956 65.7264C15.7956 65.7264 13.6527 64.8183 13.4962 64.4865C13.3365 64.1547 14.4702 60.8396 16.3608 59.655Z" fill="url(#paint17_linear_1771_63021)"/>
<path d="M13.5952 64.4458C13.5952 64.4458 10.7241 71.699 17.271 74.6794C18.6315 74.5135 18.1078 72.4586 18.1078 72.4586C18.1078 72.4586 15.2623 71.8852 16.1181 65.8341C15.3293 65.2433 13.5952 64.4458 13.5952 64.4458Z" fill="url(#paint18_linear_1771_63021)"/>
<path d="M30.7129 64.4458C30.7129 64.4458 32.6898 72.0162 27.0371 74.6794C25.6766 74.5135 26.2004 72.4586 26.2004 72.4586C26.2004 72.4586 28.4934 71.4283 28.19 65.8341C28.9756 65.2433 30.7129 64.4458 30.7129 64.4458Z" fill="url(#paint19_linear_1771_63021)"/>
<path d="M28.305 75.1888H15.604C15.5337 75.1888 15.473 75.1364 15.473 75.0695V67.3273C15.473 67.2633 15.5305 67.208 15.604 67.208H28.305C28.3752 67.208 28.4359 67.2604 28.4359 67.3273V75.0695C28.4359 75.1364 28.3784 75.1888 28.305 75.1888Z" fill="url(#paint20_linear_1771_63021)"/>
<path d="M34.1205 77.5521C32.6387 77.2406 29.2087 77.4094 29.2087 77.4094L29.0682 77.7529L28.8383 79.4643C28.8383 79.4643 32.1022 79.9999 33.7117 79.9999C33.8746 79.9999 34.0247 79.9766 34.162 79.9387C34.2099 79.898 34.2578 79.8572 34.3058 79.8107C34.9892 79.1325 34.7912 78.1342 34.1205 77.5521Z" fill="url(#paint21_linear_1771_63021)"/>
<path d="M34.2674 77.5872C34.2195 77.5755 34.1716 77.5639 34.1205 77.5522C34.7912 78.1314 34.9892 79.1298 34.3057 79.8109C34.261 79.8574 34.2131 79.8982 34.162 79.9389C35.3724 79.5955 35.5129 77.9073 34.2674 77.5872Z" fill="#7D97F4"/>
<path d="M28.2251 77.3135L28.8064 77.3368C29.1193 77.3484 29.4131 77.4881 29.6207 77.721C29.8315 77.9538 29.9369 78.2623 29.9209 78.5796C29.905 78.8299 29.7932 79.0656 29.6079 79.2315C29.4227 79.3974 29.1768 79.4819 28.9277 79.4673L28.0399 79.4091L28.2251 77.3135Z" fill="url(#paint22_linear_1771_63021)"/>
<path d="M8.70577 77.3891C10.1972 77.1213 13.6207 77.3833 13.6207 77.3833L13.7517 77.7325L13.9369 79.4498C13.9369 79.4498 10.6603 79.8951 9.05068 79.8485C8.8878 79.8427 8.7377 79.8165 8.60038 79.7758C8.55247 79.735 8.50457 79.6914 8.46305 79.6448C7.7924 78.9404 8.01595 77.9479 8.70577 77.3891Z" fill="url(#paint23_linear_1771_63021)"/>
<path d="M8.55567 77.4183C8.60358 77.4066 8.65148 77.3979 8.70258 77.3892C8.01595 77.9509 7.7924 78.9434 8.45348 79.6419C8.49819 79.6885 8.5429 79.7322 8.5908 79.7729C7.39958 79.3945 7.30058 77.7035 8.55567 77.4183Z" fill="#7D97F4"/>
<path d="M14.6044 77.3135L14.0231 77.3193C13.7102 77.3222 13.4132 77.4532 13.196 77.6802C12.9788 77.9072 12.8639 78.2128 12.8734 78.5301C12.8798 78.7804 12.9884 79.0191 13.1705 79.1908C13.3525 79.3625 13.5952 79.4527 13.8443 79.444L14.7321 79.412L14.6044 77.3135Z" fill="url(#paint24_linear_1771_63021)"/>
<path d="M34.5357 72.1907C33.8619 70.7791 32.2171 70.552 30.8183 71.2098C30.7928 71.2389 21.9273 75.3807 14.1062 77.1969C14.3297 77.8518 14.4447 78.5474 14.4702 79.2314C14.4734 79.3827 14.4734 79.5341 14.4607 79.6825C20.4583 79.4031 26.9669 77.5782 32.5589 75.9773C34.293 75.468 35.2798 73.7537 34.5357 72.1907Z" fill="url(#paint25_linear_1771_63021)"/>
<path d="M28.2666 79.3392C28.2443 78.5505 28.4104 77.817 28.7712 77.1359C28.7808 77.1039 28.7936 77.0748 28.8032 77.0428C28.3561 76.9177 27.7812 76.7459 27.0211 76.5131C21.4706 74.7813 17.2327 73.032 13.1896 71.0179C11.6183 70.235 9.83311 70.7589 9.32852 72.4528C8.87822 73.9663 9.86505 75.2557 11.3629 75.7098C15.8371 77.0661 13.509 76.6906 14.9684 77.1185C18.8934 78.2245 23.7796 79.2316 28.273 79.5081C28.273 79.4528 28.2698 79.3945 28.2666 79.3392Z" fill="url(#paint26_linear_1771_63021)"/>
<path d="M18.5581 58.7236C18.5581 58.7236 19.1553 61.0812 22.0551 61.0346C25.0092 60.9852 25.271 58.7178 25.271 58.7178L23.3421 58.3424L23.1824 56.3835L20.2794 56.5786L20.2251 58.4384L18.5581 58.7236Z" fill="url(#paint27_linear_1771_63021)"/>
<path d="M20.685 50.8301C20.685 50.8301 17.3605 56.7007 21.3046 58.1269C24.0862 59.131 25.8331 54.2267 25.3126 52.8995C24.5078 50.8446 23.9776 51.0891 23.9776 51.0891L20.685 50.8301Z" fill="url(#paint28_linear_1771_63021)"/>
<path d="M26.111 50.2946C27.7525 50.705 26.3505 53.9532 23.8754 53.1848C21.4004 52.4164 20.4295 52.428 20.0431 53.048C19.6567 53.6679 19.5736 55.8654 18.7401 54.7798C17.8235 53.5893 17.3126 51.1968 18.4367 50.4255C19.4427 49.7357 19.6758 48.6676 20.8798 48.7054C22.4798 48.7549 23.7158 48.1087 24.4375 48.5744C25.271 49.11 24.9038 49.9919 26.111 50.2946Z" fill="url(#paint29_linear_1771_63021)"/>
<path d="M19.893 53.5543C19.893 53.5543 19.184 52.8587 19.069 53.6969C18.9541 54.5352 19.3213 55.615 19.7461 55.0242C20.1772 54.4304 19.893 53.5543 19.893 53.5543Z" fill="url(#paint30_linear_1771_63021)"/>
<path d="M22.7194 69.3704C22.7896 69.7925 22.5405 70.1767 22.0742 70.2407C21.6112 70.3047 21.1768 70.0108 21.1098 69.5887C21.0395 69.1667 21.2535 68.7447 21.7166 68.6835C22.1828 68.6195 22.6523 68.9484 22.7194 69.3704Z" fill="#7D97F4"/>
</g>
<defs>
<linearGradient id="paint0_linear_1771_63021" x1="98.9859" y1="103.189" x2="30.4149" y2="9.74625" gradientUnits="userSpaceOnUse">
<stop stop-color="#DAE3FE"/>
<stop offset="1" stop-color="#E9EFFD"/>
</linearGradient>
<linearGradient id="paint1_linear_1771_63021" x1="74.0826" y1="6.71207" x2="29.7762" y2="71.2563" gradientUnits="userSpaceOnUse">
<stop stop-color="#4F52FF"/>
<stop offset="1" stop-color="#4042E2"/>
</linearGradient>
<linearGradient id="paint2_linear_1771_63021" x1="74.0826" y1="6.71203" x2="29.7763" y2="71.2561" gradientUnits="userSpaceOnUse">
<stop stop-color="#4F52FF"/>
<stop offset="1" stop-color="#4042E2"/>
</linearGradient>
<linearGradient id="paint3_linear_1771_63021" x1="74.0826" y1="6.71217" x2="29.7764" y2="71.2562" gradientUnits="userSpaceOnUse">
<stop stop-color="#4F52FF"/>
<stop offset="1" stop-color="#4042E2"/>
</linearGradient>
<linearGradient id="paint4_linear_1771_63021" x1="46.8926" y1="28.5422" x2="72.4754" y2="11.5612" gradientUnits="userSpaceOnUse">
<stop stop-color="#09005D"/>
<stop offset="1" stop-color="#1A0F91"/>
</linearGradient>
<linearGradient id="paint5_linear_1771_63021" x1="61.4614" y1="-8.7928" x2="59.8657" y2="9.15351" gradientUnits="userSpaceOnUse">
<stop stop-color="#FF928E"/>
<stop offset="1" stop-color="#FE7062"/>
</linearGradient>
<linearGradient id="paint6_linear_1771_63021" x1="77.5367" y1="6.93813" x2="88.0011" y2="6.93813" gradientUnits="userSpaceOnUse">
<stop stop-color="#4F52FF"/>
<stop offset="1" stop-color="#4042E2"/>
</linearGradient>
<linearGradient id="paint7_linear_1771_63021" x1="76.8352" y1="4.76849" x2="83.9411" y2="4.76849" gradientUnits="userSpaceOnUse">
<stop stop-color="#4F52FF"/>
<stop offset="1" stop-color="#4042E2"/>
</linearGradient>
<linearGradient id="paint8_linear_1771_63021" x1="59.9527" y1="34.808" x2="59.0834" y2="70.3209" gradientUnits="userSpaceOnUse">
<stop stop-color="#09005D"/>
<stop offset="1" stop-color="#1A0F91"/>
</linearGradient>
<linearGradient id="paint9_linear_1771_63021" x1="2.37164" y1="37.1917" x2="69.7244" y2="95.973" gradientUnits="userSpaceOnUse">
<stop stop-color="#09005D"/>
<stop offset="1" stop-color="#1A0F91"/>
</linearGradient>
<linearGradient id="paint10_linear_1771_63021" x1="68.0177" y1="14.766" x2="57.1858" y2="32.5939" gradientUnits="userSpaceOnUse">
<stop stop-color="#FF928E"/>
<stop offset="1" stop-color="#FE7062"/>
</linearGradient>
<linearGradient id="paint11_linear_1771_63021" x1="69.1888" y1="15.4777" x2="58.3569" y2="33.3057" gradientUnits="userSpaceOnUse">
<stop stop-color="#FF928E"/>
<stop offset="1" stop-color="#FE7062"/>
</linearGradient>
<linearGradient id="paint12_linear_1771_63021" x1="21.23" y1="5.73028" x2="48.0094" y2="39.2228" gradientUnits="userSpaceOnUse">
<stop stop-color="#09005D"/>
<stop offset="1" stop-color="#1A0F91"/>
</linearGradient>
<linearGradient id="paint13_linear_1771_63021" x1="45.3747" y1="13.0406" x2="35.5408" y2="16.9799" gradientUnits="userSpaceOnUse">
<stop stop-color="#FF928E"/>
<stop offset="1" stop-color="#FE7062"/>
</linearGradient>
<linearGradient id="paint14_linear_1771_63021" x1="29.3836" y1="-2.88017" x2="29.2508" y2="9.35655" gradientUnits="userSpaceOnUse">
<stop stop-color="#FF928E"/>
<stop offset="1" stop-color="#FE7062"/>
</linearGradient>
<linearGradient id="paint15_linear_1771_63021" x1="44.2244" y1="-4.41524" x2="38.142" y2="4.43158" gradientUnits="userSpaceOnUse">
<stop stop-color="#FF928E"/>
<stop offset="1" stop-color="#FE7062"/>
</linearGradient>
<linearGradient id="paint16_linear_1771_63021" x1="22.0946" y1="55.0694" x2="22.2572" y2="51.9181" gradientUnits="userSpaceOnUse">
<stop stop-color="#09005D"/>
<stop offset="1" stop-color="#1A0F91"/>
</linearGradient>
<linearGradient id="paint17_linear_1771_63021" x1="37.2189" y1="42.148" x2="30.584" y2="55.343" gradientUnits="userSpaceOnUse">
<stop stop-color="#FF928E"/>
<stop offset="1" stop-color="#FE7062"/>
</linearGradient>
<linearGradient id="paint18_linear_1771_63021" x1="12.1279" y1="62.4943" x2="21.6936" y2="87.8482" gradientUnits="userSpaceOnUse">
<stop stop-color="#FEBBBA"/>
<stop offset="1" stop-color="#FF928E"/>
</linearGradient>
<linearGradient id="paint19_linear_1771_63021" x1="32.0382" y1="62.4411" x2="22.4724" y2="87.795" gradientUnits="userSpaceOnUse">
<stop stop-color="#FEBBBA"/>
<stop offset="1" stop-color="#FF928E"/>
</linearGradient>
<linearGradient id="paint20_linear_1771_63021" x1="22.1044" y1="65.6826" x2="21.6188" y2="87.2624" gradientUnits="userSpaceOnUse">
<stop stop-color="#09005D"/>
<stop offset="1" stop-color="#1A0F91"/>
</linearGradient>
<linearGradient id="paint21_linear_1771_63021" x1="48.3602" y1="47.4174" x2="18.5293" y2="115.049" gradientUnits="userSpaceOnUse">
<stop stop-color="#4F52FF"/>
<stop offset="1" stop-color="#4042E2"/>
</linearGradient>
<linearGradient id="paint22_linear_1771_63021" x1="32.896" y1="68.5708" x2="27.4034" y2="84.895" gradientUnits="userSpaceOnUse">
<stop stop-color="#FEBBBA"/>
<stop offset="1" stop-color="#FF928E"/>
</linearGradient>
<linearGradient id="paint23_linear_1771_63021" x1="16.5829" y1="61.3661" x2="6.76244" y2="98.5634" gradientUnits="userSpaceOnUse">
<stop stop-color="#4F52FF"/>
<stop offset="1" stop-color="#4042E2"/>
</linearGradient>
<linearGradient id="paint24_linear_1771_63021" x1="19.9162" y1="63.7514" x2="14.4206" y2="80.0842" gradientUnits="userSpaceOnUse">
<stop stop-color="#FEBBBA"/>
<stop offset="1" stop-color="#FF928E"/>
</linearGradient>
<linearGradient id="paint25_linear_1771_63021" x1="35.642" y1="68.2619" x2="19.9544" y2="81.1923" gradientUnits="userSpaceOnUse">
<stop stop-color="#4F52FF"/>
<stop offset="1" stop-color="#4042E2"/>
</linearGradient>
<linearGradient id="paint26_linear_1771_63021" x1="20.4119" y1="78.6035" x2="16.6609" y2="68.1084" gradientUnits="userSpaceOnUse">
<stop stop-color="#4F52FF"/>
<stop offset="1" stop-color="#4042E2"/>
</linearGradient>
<linearGradient id="paint27_linear_1771_63021" x1="21.9873" y1="64.5358" x2="21.8632" y2="52.6858" gradientUnits="userSpaceOnUse">
<stop stop-color="#FEBBBA"/>
<stop offset="1" stop-color="#FF928E"/>
</linearGradient>
<linearGradient id="paint28_linear_1771_63021" x1="21.554" y1="57.958" x2="23.4598" y2="47.7791" gradientUnits="userSpaceOnUse">
<stop stop-color="#FEBBBA"/>
<stop offset="1" stop-color="#FF928E"/>
</linearGradient>
<linearGradient id="paint29_linear_1771_63021" x1="24.0273" y1="45.3041" x2="22.9193" y2="50.1218" gradientUnits="userSpaceOnUse">
<stop stop-color="#09005D"/>
<stop offset="1" stop-color="#1A0F91"/>
</linearGradient>
<linearGradient id="paint30_linear_1771_63021" x1="20.0438" y1="59.3006" x2="18.6852" y2="43.1741" gradientUnits="userSpaceOnUse">
<stop stop-color="#FEBBBA"/>
<stop offset="1" stop-color="#FF928E"/>
</linearGradient>
<clipPath id="clip0_1771_63021">
<rect width="88" height="80" fill="white"/>
</clipPath>
</defs>
</svg>
